1508405807242 1508405807141 vader HELLO 
1508405807340 1508405807350 luke HELLO 
1508405807378 1508405807387 luke LOST vader 
1508405807467 1508405807479 luke FOUND r2d2 
1508405807468 1508405807480 luke LOST leia 
1508405807512 1508405807400 vader LOST luke 
1508405807560 1508405807504 vader HELLO
